{
   "Dismiss": {
      "message": "Παράβλεψη"
   },
   "Hide": {
      "message": "Να μην εμφανίζεται ποτέ"
   },
   "Loading": {
      "message": "Φόρτωση..."
   },
   "Options": {
      "message": "Επιλογές"
   },
   "Segment": {
      "message": "τμήμα"
   },
   "Segments": {
      "message": "τμήματα"
   },
   "add": {
      "message": "Προσθήκη"
   },
   "bracketNow": {
      "message": "(τώρα)"
   },
   "cancel": {
      "message": "Ακύρωση"
   },
   "category": {
      "message": "Κατηγορία"
   },
   "categoryUpdate1": {
      "message": "Οι κατηγορίες είναι εδώ!"
   },
   "categoryUpdate2": {
      "message": "Άνοιξε τις επιλογές για την παράλειψη τίτλων αρχής-τέλους, πωλήσεων κ. α."
   },
   "category_intro_short": {
      "message": "Διάλειμμα"
   },
   "category_sponsor": {
      "message": "Χορηγός"
   },
   "chooseACategory": {
      "message": "Επιλέξτε μια κατηγορία"
   },
   "clearThis": {
      "message": "Θέλετε σίγουρα να εκκαθαρίσετε τη φόρμα;\n\n"
   },
   "clearTimes": {
      "message": "Καθαρισμός τμημάτων"
   },
   "confirmNoticeTitle": {
      "message": "Υποβολή Κατηγορίας"
   },
   "createdBy": {
      "message": "Δημιουργήθηκε από"
   },
   "delete": {
      "message": "Διαγραφή"
   },
   "disable": {
      "message": "Απενεργοποίηση"
   },
   "edit": {
      "message": "Επεξεργασία"
   },
   "enableTestingServer": {
      "message": "Ενεργοποίηση διακομιστή δοκιμαστικών λειτουργιών"
   },
   "errorCode": {
      "message": "Κωδικός σφάλματος: "
   },
   "fullName": {
      "description": "Name of the extension.",
      "message": "SponsorBlock for YouTube - Skip Sponsorships"
   },
   "guidelines": {
      "message": "Οδηγίες"
   },
   "hourLower": {
      "message": "ώρα"
   },
   "hoursLower": {
      "message": "ώρες"
   },
   "incorrectCategory": {
      "message": "Λάθος κατηγορία"
   },
   "manualPaused": {
      "message": "Λήξη χρονομέτρου"
   },
   "minLower": {
      "message": "λεπτό"
   },
   "minsLower": {
      "message": "λεπτά"
   },
   "moreCategories": {
      "message": "Περισσότερες κατηγορίες"
   },
   "multipleSegments": {
      "message": "Πολλαπλά Τμήματα"
   },
   "paused": {
      "message": "Σε παύση"
   },
   "preview": {
      "message": "Προεπισκόπηση"
   },
   "readTheGuidelines": {
      "description": "Show the first time they submit or if they are \"high risk\"",
      "message": "Διάβασε τις οδηγίες!!"
   },
   "reportButtonInfo": {
      "message": "Αναφέρετε αυτή την υποβολή σαν λανθασμένη."
   },
   "reportButtonTitle": {
      "message": "Αναφορά"
   },
   "reset": {
      "message": "Επαναφορά"
   },
   "save": {
      "message": "Αποθήκευση"
   },
   "skip": {
      "message": "Παράκαμψη"
   },
   "skipOption": {
      "description": "Used on the options page to describe the ways to skip the segment (auto skip, manual, etc.)",
      "message": "Παράλειψη Επιλογής"
   },
   "sourceCode": {
      "description": "Used on Firefox Store Page",
      "message": "Πηγαίος Κώδικας"
   },
   "submit": {
      "message": "Υποβολή"
   },
   "success": {
      "message": "Επιτυχία!"
   },
   "to": {
      "description": "Used between segments. Example: 1:20 to 1:30",
      "message": "έως"
   },
   "upvoteButtonInfo": {
      "message": "Κάντε upvote αυτήν την υποβολή"
   },
   "voted": {
      "message": "Ψηφίστηκε!"
   },
   "website": {
      "description": "Used on Firefox Store Page",
      "message": "Ιστοσελίδα"
   },
   "whatEnableTestingServer": {
      "message": "Οι υποβολές και οι ψήφοι ΔΕΝ ΘΑ ΜΕΤΡΗΣΟΥΝ προς τον κεντρικό διακομιστή. Χρησιμοποίησέ το μόνο για δοκιμή."
   }
}
